<?xml version="1.0" encoding="utf-8"?>
<!-- Generator: Adobe Illustrator 18.1.1, SVG Export Plug-In . SVG Version: 6.00 Build 0)  -->
<svg version="1.1" id="Layer_1" xmlns="http://www.w3.org/2000/svg" xmlns:xlink="http://www.w3.org/1999/xlink" x="0px" y="0px"
	 viewBox="0 0 20 20" enable-background="new 0 0 20 20" xml:space="preserve">
<path fill="#86754D" d="M10,20c5.5,0,10-4.5,10-10c0-5.5-4.5-10-10-10C4.5,0,0,4.5,0,10C0,15.5,4.5,20,10,20z M7.2,8.3h1.2V7.1
	c0-1.6,0.6-2.5,2.5-2.5h1.5v1.9h-1c-0.7,0-0.8,0.3-0.8,0.8l0,1h1.7l-0.2,1.9h-1.5v5.6H8.4v-5.6H7.2V8.3z"/>
</svg>
