<?xml version="1.0" encoding="utf-8"?>
<!-- Generator: Adobe Illustrator 18.1.1, SVG Export Plug-In . SVG Version: 6.00 Build 0)  -->
<svg version="1.1" id="Layer_1" xmlns="http://www.w3.org/2000/svg" xmlns:xlink="http://www.w3.org/1999/xlink" x="0px" y="0px"
	 viewBox="0 0 20 20" enable-background="new 0 0 20 20" xml:space="preserve">
<g>
	<path fill="#86754D" d="M10,0C4.5,0,0,4.5,0,10c0,5.5,4.5,10,10,10s10-4.5,10-10C19.9,4.5,15.5,0,10,0z M4.8,6.3
		c0-0.5,0.4-0.9,0.9-0.9h8.6c0.5,0,0.9,0.4,0.9,0.9v2.2h-3.2c-0.5-0.5-1.2-0.7-1.9-0.7C9.2,7.8,8.5,8.1,8,8.5H4.8V6.3z M9.9,8.6
		c1.1,0,2.1,0.9,2.1,2.1c0,1.1-0.9,2.1-2.1,2.1c-1.1,0-2.1-0.9-2.1-2.1C7.9,9.5,8.8,8.6,9.9,8.6z M15.1,13.7c0,0.5-0.4,0.9-0.9,0.9
		H5.6c-0.5,0-0.9-0.4-0.9-0.9V9.3h2.7c-0.2,0.4-0.3,0.9-0.3,1.3c0,1.6,1.3,2.8,2.8,2.8c1.6,0,2.8-1.3,2.8-2.8c0-0.5-0.1-0.9-0.3-1.3
		h2.7V13.7z"/>
	<path fill="#86754D" d="M13.2,7.8h0.4c0.3,0,0.5-0.2,0.5-0.5V6.9c0-0.3-0.2-0.5-0.5-0.5h-0.4c-0.3,0-0.5,0.2-0.5,0.5v0.4
		C12.7,7.6,13,7.8,13.2,7.8z"/>
</g>
</svg>
